Amen, Brother
…
So it seems that Hip-Hop started sampling in the mid to late 80s exclusively before Electronic / Dance (EDM) caught on in the early 90s. This makes a bit of sense, as 1985 introduced a cheaper sampler that producers could afford. Indeed, by 1990 only one EMD song sampled Amen, Brother (The Minutement) while 23 Hip-Hop songs sampled. Such songs include Straight Outta Compton by N.W.A, I Desire by Salt-N-Pepa, Feel Alright Y’all by 2 Live Crew, and One Time Freestyle by Geto Boys. Excuse me while I take a short YouTube break to listen to them.

Now, why did EDM artists follow soon after? Based on this article, British music producers on the dance music scene looked to the US for inspiration in the early 90’s. Old breakbeats were dug out and the Amen break featured heavily in jungle music. From Wikipedia, “Jungle is a genre of electronic music derived from breakbeat hardcore that developed in England in the early 1990s as part of UK rave scenes. The style is characterized by fast tempos (150 to 200 bpm), breakbeats, dub reggae basslines, heavily syncopated percussive loops, samples, and synthesized effects… Producers create the drum patterns by cutting apart breakbeats, the most common of which being the Amen break”"

In 1997, Amen, Break went mainstream when Oasis used it in the song D’You Know What I Mean. It later appeared in David Bowie’s hit song Little Wonder.

Before I dive a bit deeper, let’s take a quick peek at the soundtracks that sampled to see if there are any familar ones.

## # A tibble: 58 x 1
##    Title                                            
##    <chr>                                            
##  1 Futurama Theme                                   
##  2 Dirty City (Tokyo Stage)                         
##  3 Bomber Barbara                                   
##  4 Mission 4                                        
##  5 Bad Situation                                    
##  6 Aridia - Traversing the Fortress                 
##  7 Sweet Soul Brother (B.B. Rights Mix)             
##  8 Romulus 3                                        
##  9 "Rival Battle: Metal Sonic \"Stardust Speedway\""
## 10 Battle! Kanto Champion                           
## # ... with 48 more rows
…
