Dplyr <-> Pandas
…
Groupby

Quite frequently, one might want to do apply some function to the data but after grouping the data by some sort of category. For example, we can look at the average arrival delay for each month (function is the mean, data is the arr_delay column, grouping is the month column).

For example, the following finds all destinations that were flown to more than 365 times.

popular_dests <- flights %>% 
  group_by(dest) %>% 
  count() %>%
  filter(n > 365) %>%
  arrange(desc(n))
popular_dests

## # A tibble: 77 x 2
## # Groups:   dest [77]
##    dest      n
##    <chr> <int>
##  1 ORD   17283
##  2 ATL   17215
##  3 LAX   16174
##  4 BOS   15508
##  5 MCO   14082
##  6 CLT   14064
##  7 SFO   13331
##  8 FLL   12055
##  9 MIA   11728
## 10 DCA    9705
## # ... with 67 more rows
…
